{
  "server": true,
  "advertise_addr": "192.168.2.104",
  "bootstrap": true,
  "ui": true,
  "acl_datacenter": "dc1",
  "acl_master_token": "lJfbPJIEAPRtMVm0UoNe3Q==",
  "acl_default_policy": "deny",
  "acl_down_policy": "extend-cache"
}
